<?xml version="1.0" encoding="UTF-8" standalone="no"?>
<!-- Created with Inkscape (http://www.inkscape.org/) -->

<svg
   xmlns:dc="http://purl.org/dc/elements/1.1/"
   xmlns:cc="http://creativecommons.org/ns#"
   xmlns:rdf="http://www.w3.org/1999/02/22-rdf-syntax-ns#"
   xmlns:svg="http://www.w3.org/2000/svg"
   xmlns="http://www.w3.org/2000/svg"
   xmlns:sodipodi="http://sodipodi.sourceforge.net/DTD/sodipodi-0.dtd"
   xmlns:inkscape="http://www.inkscape.org/namespaces/inkscape"
   width="210mm"
   height="297mm"
   viewBox="0 0 210 297"
   version="1.1"
   id="svg8"
   inkscape:version="0.92.5 (2060ec1f9f, 2020-04-08)"
   sodipodi:docname="fundosorrisos_2.svg">
  <defs
     id="defs2">
    <clipPath
       clipPathUnits="userSpaceOnUse"
       id="clipPath64">
      <path
         d="M 0,595.276 H 841.89 V 0 H 0 Z"
         id="path62"
         inkscape:connector-curvature="0" />
    </clipPath>
    <clipPath
       clipPathUnits="userSpaceOnUse"
       id="clipPath141">
      <path
         d="M 0,1080 H 1920 V 0 H 0 Z"
         id="path139"
         inkscape:connector-curvature="0" />
    </clipPath>
    <clipPath
       clipPathUnits="userSpaceOnUse"
       id="clipPath361">
      <path
         d="m 117.953,500.547 h 19.279 v -12.423 h -19.279 z"
         id="path359"
         inkscape:connector-curvature="0" />
    </clipPath>
    <clipPath
       clipPathUnits="userSpaceOnUse"
       id="clipPath377">
      <path
         d="m 117.584,502.212 h 19.651 v -14.435 h -19.651 z"
         id="path375"
         inkscape:connector-curvature="0" />
    </clipPath>
    <clipPath
       clipPathUnits="userSpaceOnUse"
       id="clipPath393">
      <path
         d="m 220.045,515.184 h 19.279 v -12.422 h -19.279 z"
         id="path391"
         inkscape:connector-curvature="0" />
    </clipPath>
    <clipPath
       clipPathUnits="userSpaceOnUse"
       id="clipPath409">
      <path
         d="m 219.676,516.849 h 19.652 v -14.434 h -19.652 z"
         id="path407"
         inkscape:connector-curvature="0" />
    </clipPath>
    <clipPath
       clipPathUnits="userSpaceOnUse"
       id="clipPath449">
      <path
         d="m 198.205,455.08 h 13.547 v -34.19 h -13.547 z"
         id="path447"
         inkscape:connector-curvature="0" />
    </clipPath>
    <clipPath
       clipPathUnits="userSpaceOnUse"
       id="clipPath857">
      <path
         d="m 797.261,972.869 c 0,0 152.604,-26.566 162.224,-15.227 v 0 c 9.622,11.339 -7.297,25.57 -7.297,25.57 v 0 c -0.379,8.52 -15.674,15.938 -15.674,15.938 v 0 c -10.137,30.022 -65.634,30.753 -65.634,30.753 v 0 c -59.625,-5.394 -73.619,-57.034 -73.619,-57.034"
         id="path855"
         inkscape:connector-curvature="0" />
    </clipPath>
    <clipPath
       clipPathUnits="userSpaceOnUse"
       id="clipPath869">
      <path
         d="m 824.625,944.977 h 3.402 v -2.159 h -3.402 z"
         id="path867"
         inkscape:connector-curvature="0" />
    </clipPath>
    <clipPath
       clipPathUnits="userSpaceOnUse"
       id="clipPath893">
      <path
         d="M 0,1080 H 1920 V 0 H 0 Z"
         id="path891"
         inkscape:connector-curvature="0" />
    </clipPath>
    <clipPath
       clipPathUnits="userSpaceOnUse"
       id="clipPath905">
      <path
         d="m 859.324,988.265 c -41.279,-3.512 -70.394,-15.119 -74.275,-28.333 v 0 c -3.88,-13.214 14.279,-19.763 14.279,-19.763 v 0 c 71.527,24.933 115.929,16.517 138.198,8.102 v 0 c 11.462,-4.33 17.061,-8.661 17.481,-8.446 v 0 c 12.601,6.446 23.447,20.966 9.887,33.547 v 0 c -10.94,10.149 -46.072,15.902 -80.92,15.901 v 0 c -8.343,0 -16.675,-0.33 -24.65,-1.008"
         id="path903"
         inkscape:connector-curvature="0" />
    </clipPath>
    <clipPath
       clipPathUnits="userSpaceOnUse"
       id="clipPath929">
      <path
         d="M 0,1080 H 1920 V 0 H 0 Z"
         id="path927"
         inkscape:connector-curvature="0" />
    </clipPath>
    <clipPath
       clipPathUnits="userSpaceOnUse"
       id="clipPath1001">
      <path
         d="m 1128.27,937.367 h 18.48 v -11.675 h -18.48 z"
         id="path999"
         inkscape:connector-curvature="0" />
    </clipPath>
    <clipPath
       clipPathUnits="userSpaceOnUse"
       id="clipPath1017">
      <path
         d="m 1127.63,938.738 h 19.44 v -12.885 h -19.44 z"
         id="path1015"
         inkscape:connector-curvature="0" />
    </clipPath>
    <clipPath
       clipPathUnits="userSpaceOnUse"
       id="clipPath1033">
      <path
         d="m 1032.34,940.895 h 18.48 V 929.22 h -18.48 z"
         id="path1031"
         inkscape:connector-curvature="0" />
    </clipPath>
    <clipPath
       clipPathUnits="userSpaceOnUse"
       id="clipPath1049">
      <path
         d="m 1031.7,942.266 h 19.44 v -12.885 h -19.44 z"
         id="path1047"
         inkscape:connector-curvature="0" />
    </clipPath>
    <clipPath
       clipPathUnits="userSpaceOnUse"
       id="clipPath1161">
      <path
         d="m 1009.841,973.408 c 0,0 152.604,-26.567 162.225,-15.228 v 0 c 9.621,11.34 -7.298,25.57 -7.298,25.57 v 0 c -0.379,8.522 -15.674,15.938 -15.674,15.938 v 0 c -10.137,30.022 -65.634,30.753 -65.634,30.753 v 0 c -59.625,-5.395 -73.619,-57.033 -73.619,-57.033"
         id="path1159"
         inkscape:connector-curvature="0" />
    </clipPath>
    <clipPath
       clipPathUnits="userSpaceOnUse"
       id="clipPath1173">
      <path
         d="m 1037.21,945.516 h 3.4 v -2.16 h -3.4 z"
         id="path1171"
         inkscape:connector-curvature="0" />
    </clipPath>
    <clipPath
       clipPathUnits="userSpaceOnUse"
       id="clipPath1197">
      <path
         d="M 0,1080 H 1920 V 0 H 0 Z"
         id="path1195"
         inkscape:connector-curvature="0" />
    </clipPath>
    <clipPath
       clipPathUnits="userSpaceOnUse"
       id="clipPath1209">
      <path
         d="m 1071.905,988.803 c -41.28,-3.512 -70.395,-15.119 -74.276,-28.333 v 0 c -3.88,-13.214 14.279,-19.763 14.279,-19.763 v 0 c 71.527,24.932 115.928,16.517 138.197,8.102 v 0 c 11.462,-4.33 17.063,-8.661 17.483,-8.446 v 0 c 12.6,6.446 23.447,20.968 9.886,33.547 v 0 c -10.94,10.149 -46.072,15.902 -80.919,15.901 v 0 c -8.344,0 -16.675,-0.33 -24.65,-1.008"
         id="path1207"
         inkscape:connector-curvature="0" />
    </clipPath>
    <clipPath
       clipPathUnits="userSpaceOnUse"
       id="clipPath1233">
      <path
         d="M 0,1080 H 1920 V 0 H 0 Z"
         id="path1231"
         inkscape:connector-curvature="0" />
    </clipPath>
    <clipPath
       clipPathUnits="userSpaceOnUse"
       id="clipPath1285">
      <path
         d="m 1111.32,881.883 h 12.77 v -34.194 h -12.77 z"
         id="path1283"
         inkscape:connector-curvature="0" />
    </clipPath>
    <clipPath
       clipPathUnits="userSpaceOnUse"
       id="clipPath1349">
      <path
         d="M 368.729,981.651 H 485.337 V 841.66 H 368.729 Z"
         id="path1347"
         inkscape:connector-curvature="0" />
    </clipPath>
    <clipPath
       clipPathUnits="userSpaceOnUse"
       id="clipPath1365">
      <path
         d="m 506.642,895.753 h 14.274 v -22.014 h -14.274 z"
         id="path1363"
         inkscape:connector-curvature="0" />
    </clipPath>
    <clipPath
       clipPathUnits="userSpaceOnUse"
       id="clipPath1389">
      <path
         d="m 407.34,961.96 h 16.467 V 943.591 H 407.34 Z"
         id="path1387"
         inkscape:connector-curvature="0" />
    </clipPath>
    <clipPath
       clipPathUnits="userSpaceOnUse"
       id="clipPath1409">
      <path
         d="m 492.687,957.523 h 7.361 v -8.472 h -7.361 z"
         id="path1407"
         inkscape:connector-curvature="0" />
    </clipPath>
    <clipPath
       clipPathUnits="userSpaceOnUse"
       id="clipPath1433">
      <path
         d="m 439.92,986.499 h 0.068 v -0.504 h -0.068 z"
         id="path1431"
         inkscape:connector-curvature="0" />
    </clipPath>
    <clipPath
       clipPathUnits="userSpaceOnUse"
       id="clipPath1465">
      <path
         d="m 411.914,928.582 h 14.572 v -9.807 h -14.572 z"
         id="path1463"
         inkscape:connector-curvature="0" />
    </clipPath>
    <clipPath
       clipPathUnits="userSpaceOnUse"
       id="clipPath1493">
      <path
         d="m 146.835,197.796 c -27.499,0 -50,-22.5 -50,-50 v 0 -8.109 c 0,-27.499 22.501,-49.999 50,-49.999 v 0 h 1648.65 c 27.499,0 49.999,22.5 49.999,49.999 v 0 8.109 c 0,27.5 -22.5,50 -49.999,50 v 0 z"
         id="path1491"
         inkscape:connector-curvature="0" />
    </clipPath>
    <linearGradient
       x1="0"
       y1="0"
       x2="1"
       y2="0"
       gradientUnits="userSpaceOnUse"
       gradientTransform="matrix(0,-108.10811,-108.10811,0,971.15973,197.79585)"
       spreadMethod="pad"
       id="linearGradient1503">
      <stop
         style="stop-opacity:1;stop-color:#515050"
         offset="0"
         id="stop1499" />
      <stop
         style="stop-opacity:1;stop-color:#7b7b7b"
         offset="1"
         id="stop1501" />
    </linearGradient>
    <clipPath
       clipPathUnits="userSpaceOnUse"
       id="clipPath1513">
      <path
         d="M 0,1080 H 1920 V 0 H 0 Z"
         id="path1511"
         inkscape:connector-curvature="0" />
    </clipPath>
    <clipPath
       clipPathUnits="userSpaceOnUse"
       id="clipPath1521">
      <path
         d="m 531.998,197.796 h 4 V 89.6878 h -4 z"
         id="path1519"
         inkscape:connector-curvature="0" />
    </clipPath>
    <clipPath
       clipPathUnits="userSpaceOnUse"
       id="clipPath1545">
      <path
         d="m 969.16,197.796 h 4 V 89.6878 h -4 z"
         id="path1543"
         inkscape:connector-curvature="0" />
    </clipPath>
    <clipPath
       clipPathUnits="userSpaceOnUse"
       id="clipPath1569">
      <path
         d="m 1406.32,197.796 h 4 V 89.6878 h -4 z"
         id="path1567"
         inkscape:connector-curvature="0" />
    </clipPath>
    <clipPath
       clipPathUnits="userSpaceOnUse"
       id="clipPath1597">
      <path
         d="m 146.835,347.267 c -27.499,0 -50,-22.5 -50,-50.001 v 0 -8.107 c 0,-27.5 22.501,-50 50,-50 v 0 h 1648.65 c 27.499,0 49.999,22.5 49.999,50 v 0 8.107 c 0,27.501 -22.5,50.001 -49.999,50.001 v 0 z"
         id="path1595"
         inkscape:connector-curvature="0" />
    </clipPath>
    <clipPath
       clipPathUnits="userSpaceOnUse"
       id="clipPath1609">
      <path
         d="M 0,1080 H 1920 V 0 H 0 Z"
         id="path1607"
         inkscape:connector-curvature="0" />
    </clipPath>
    <clipPath
       clipPathUnits="userSpaceOnUse"
       id="clipPath1621">
      <path
         d="M 416.241,404.8 H 654.235 V 381.63 H 416.241 Z"
         id="path1619"
         inkscape:connector-curvature="0" />
    </clipPath>
    <clipPath
       clipPathUnits="userSpaceOnUse"
       id="clipPath1641">
      <path
         d="M 416.241,438.168 H 654.235 V 414.997 H 416.241 Z"
         id="path1639"
         inkscape:connector-curvature="0" />
    </clipPath>
    <clipPath
       clipPathUnits="userSpaceOnUse"
       id="clipPath1661">
      <path
         d="M 416.241,471.536 H 654.235 V 448.365 H 416.241 Z"
         id="path1659"
         inkscape:connector-curvature="0" />
    </clipPath>
    <clipPath
       clipPathUnits="userSpaceOnUse"
       id="clipPath1681">
      <path
         d="M 416.241,504.904 H 654.235 V 481.733 H 416.241 Z"
         id="path1679"
         inkscape:connector-curvature="0" />
    </clipPath>
    <clipPath
       clipPathUnits="userSpaceOnUse"
       id="clipPath1701">
      <path
         d="m 416.241,538.271 h 237.994 v -23.17 H 416.241 Z"
         id="path1699"
         inkscape:connector-curvature="0" />
    </clipPath>
    <clipPath
       clipPathUnits="userSpaceOnUse"
       id="clipPath1721">
      <path
         d="M 416.241,571.639 H 654.235 V 548.468 H 416.241 Z"
         id="path1719"
         inkscape:connector-curvature="0" />
    </clipPath>
    <clipPath
       clipPathUnits="userSpaceOnUse"
       id="clipPath1741">
      <path
         d="M 696.055,404.8 H 934.05 V 381.63 H 696.055 Z"
         id="path1739"
         inkscape:connector-curvature="0" />
    </clipPath>
    <clipPath
       clipPathUnits="userSpaceOnUse"
       id="clipPath1761">
      <path
         d="M 696.055,438.168 H 934.05 V 414.997 H 696.055 Z"
         id="path1759"
         inkscape:connector-curvature="0" />
    </clipPath>
    <clipPath
       clipPathUnits="userSpaceOnUse"
       id="clipPath1781">
      <path
         d="M 696.055,471.536 H 934.05 V 448.365 H 696.055 Z"
         id="path1779"
         inkscape:connector-curvature="0" />
    </clipPath>
    <clipPath
       clipPathUnits="userSpaceOnUse"
       id="clipPath1801">
      <path
         d="M 696.055,504.904 H 934.05 V 481.733 H 696.055 Z"
         id="path1799"
         inkscape:connector-curvature="0" />
    </clipPath>
    <clipPath
       clipPathUnits="userSpaceOnUse"
       id="clipPath1821">
      <path
         d="M 696.055,538.271 H 934.05 v -23.17 H 696.055 Z"
         id="path1819"
         inkscape:connector-curvature="0" />
    </clipPath>
    <clipPath
       clipPathUnits="userSpaceOnUse"
       id="clipPath1841">
      <path
         d="M 696.055,571.639 H 934.05 V 548.468 H 696.055 Z"
         id="path1839"
         inkscape:connector-curvature="0" />
    </clipPath>
    <clipPath
       clipPathUnits="userSpaceOnUse"
       id="clipPath1861">
      <path
         d="M 975.867,404.8 H 1213.86 V 381.63 H 975.867 Z"
         id="path1859"
         inkscape:connector-curvature="0" />
    </clipPath>
    <clipPath
       clipPathUnits="userSpaceOnUse"
       id="clipPath1881">
      <path
         d="M 975.867,438.168 H 1213.86 V 414.997 H 975.867 Z"
         id="path1879"
         inkscape:connector-curvature="0" />
    </clipPath>
    <clipPath
       clipPathUnits="userSpaceOnUse"
       id="clipPath1901">
      <path
         d="M 975.867,471.536 H 1213.86 V 448.365 H 975.867 Z"
         id="path1899"
         inkscape:connector-curvature="0" />
    </clipPath>
    <clipPath
       clipPathUnits="userSpaceOnUse"
       id="clipPath1921">
      <path
         d="M 975.867,504.904 H 1213.86 V 481.733 H 975.867 Z"
         id="path1919"
         inkscape:connector-curvature="0" />
    </clipPath>
    <clipPath
       clipPathUnits="userSpaceOnUse"
       id="clipPath1941">
      <path
         d="m 975.867,538.271 h 237.993 v -23.17 H 975.867 Z"
         id="path1939"
         inkscape:connector-curvature="0" />
    </clipPath>
    <clipPath
       clipPathUnits="userSpaceOnUse"
       id="clipPath1961">
      <path
         d="M 975.867,571.639 H 1213.86 V 548.468 H 975.867 Z"
         id="path1959"
         inkscape:connector-curvature="0" />
    </clipPath>
    <clipPath
       clipPathUnits="userSpaceOnUse"
       id="clipPath2001">
      <path
         d="m 1794.49,938.224 h 107.89 v -89.009 h -107.89 z"
         id="path1999"
         inkscape:connector-curvature="0" />
    </clipPath>
  </defs>
  <sodipodi:namedview
     id="base"
     pagecolor="#ffffff"
     bordercolor="#666666"
     borderopacity="1.0"
     inkscape:pageopacity="0.0"
     inkscape:pageshadow="2"
     inkscape:zoom="0.35"
     inkscape:cx="915.79904"
     inkscape:cy="548.57143"
     inkscape:document-units="mm"
     inkscape:current-layer="g56"
     showgrid="false"
     inkscape:window-width="1304"
     inkscape:window-height="704"
     inkscape:window-x="62"
     inkscape:window-y="27"
     inkscape:window-maximized="1" />
  <metadata
     id="metadata5">
    <rdf:RDF>
      <cc:Work
         rdf:about="">
        <dc:format>image/svg+xml</dc:format>
        <dc:type
           rdf:resource="http://purl.org/dc/dcmitype/StillImage" />
        <dc:title></dc:title>
      </cc:Work>
    </rdf:RDF>
  </metadata>
  <g
     inkscape:label="Camada 1"
     inkscape:groupmode="layer"
     id="layer1">
    <g
       transform="matrix(0.42198617,0,0,-0.42198617,-92.73671,291.97463)"
       inkscape:label="care store Logo (1)"
       id="g56">
      <g
         id="g1733"
         style="opacity:0.355">
        <g
           transform="matrix(0.18667057,0,0,0.18667057,385.54665,365.24047)"
           style="fill:#e6e6e6"
           id="g1388">
          <g
             style="fill:#e6e6e6"
             transform="matrix(2.5304334,0,0,2.5304334,265.4192,319.57515)"
             id="g90">
            <path
               inkscape:connector-curvature="0"
               id="path92"
               style="fill:#e6e6e6;fill-opacity:1;fill-rule:nonzero;stroke:none"
               d="m 0,0 c 0,0 -5.197,12.471 -5.197,25.982 0,5.938 4.151,20.23 12.471,18.707 7.429,-1.36 9.354,-13.511 4.1,-25.674 C 6.667,8.118 0,0 0,0 m 159.01,31.178 c -4.481,-18.171 -3.117,-54.042 -50.465,-77.235 -8.22,-4.026 -18.348,-5.791 -30.1,-6.029 -11.297,-0.23 -24.325,1.78 -32.173,5.278 -23.408,10.433 -34.837,24.438 -36.918,30.18 21.824,27.021 24.16,46.54 19.746,60.278 -4.847,15.085 -18.804,23.016 -33.257,13.511 -19.874,-13.07 -19.624,-43.819 -8.654,-67.598 0.713,-1.543 1.473,-3.134 2.282,-4.754 2.332,-4.675 5.093,-9.614 8.448,-14.519 13.394,-19.591 44.691,-39.922 77.948,-39.922 65.475,0 97.694,50.925 105.538,94.575 2.907,16.173 -18.807,20.786 -22.395,6.235" />
          </g>
          <g
             style="fill:#e6e6e6"
             transform="matrix(2.5304334,0,0,2.5304334,552.27976,480.12912)"
             id="g94">
            <path
               inkscape:connector-curvature="0"
               id="path96"
               style="fill:#e6e6e6;fill-opacity:1;fill-rule:nonzero;stroke:none"
               d="m 0,0 c -1.948,0 -3.639,0.12 -4.977,0.266 -4.279,0.466 -7.369,4.315 -6.902,8.594 0.469,4.279 4.307,7.367 8.595,6.903 2.584,-0.284 9.285,-0.6 15.603,2.542 4.118,2.047 6.449,4.724 7.679,6.61 2.353,3.605 7.183,4.622 10.787,2.269 3.606,-2.353 4.621,-7.183 2.269,-10.788 C 30.766,12.891 26.517,7.954 19.262,4.347 12.238,0.854 5.203,0 0,0" />
          </g>
          <g
             style="fill:#e6e6e6"
             transform="matrix(2.5304334,0,0,2.5304334,447.20022,514.68927)"
             id="g98">
            <path
               inkscape:connector-curvature="0"
               id="path100"
               style="fill:#e6e6e6;fill-opacity:1;fill-rule:nonzero;stroke:none"
               d="m 0,0 c -0.372,-6.975 -7.413,-12.376 -15.727,-12.063 -8.312,0.312 -14.75,6.22 -14.377,13.195 0.373,6.975 7.414,12.376 15.727,12.064 C -6.064,12.883 0.373,6.976 0,0" />
          </g>
        </g>
        <g
           id="g1402"
           style="fill:#e6e6e6"
           transform="matrix(0.18667057,0,0,0.18667057,516.31995,501.38802)">
          <g
             id="g1392"
             transform="matrix(2.5304334,0,0,2.5304334,265.4192,319.57515)"
             style="fill:#e6e6e6">
            <path
               d="m 0,0 c 0,0 -5.197,12.471 -5.197,25.982 0,5.938 4.151,20.23 12.471,18.707 7.429,-1.36 9.354,-13.511 4.1,-25.674 C 6.667,8.118 0,0 0,0 m 159.01,31.178 c -4.481,-18.171 -3.117,-54.042 -50.465,-77.235 -8.22,-4.026 -18.348,-5.791 -30.1,-6.029 -11.297,-0.23 -24.325,1.78 -32.173,5.278 -23.408,10.433 -34.837,24.438 -36.918,30.18 21.824,27.021 24.16,46.54 19.746,60.278 -4.847,15.085 -18.804,23.016 -33.257,13.511 -19.874,-13.07 -19.624,-43.819 -8.654,-67.598 0.713,-1.543 1.473,-3.134 2.282,-4.754 2.332,-4.675 5.093,-9.614 8.448,-14.519 13.394,-19.591 44.691,-39.922 77.948,-39.922 65.475,0 97.694,50.925 105.538,94.575 2.907,16.173 -18.807,20.786 -22.395,6.235"
               style="fill:#e6e6e6;fill-opacity:1;fill-rule:nonzero;stroke:none"
               id="path1390"
               inkscape:connector-curvature="0" />
          </g>
          <g
             id="g1396"
             transform="matrix(2.5304334,0,0,2.5304334,552.27976,480.12912)"
             style="fill:#e6e6e6">
            <path
               d="m 0,0 c -1.948,0 -3.639,0.12 -4.977,0.266 -4.279,0.466 -7.369,4.315 -6.902,8.594 0.469,4.279 4.307,7.367 8.595,6.903 2.584,-0.284 9.285,-0.6 15.603,2.542 4.118,2.047 6.449,4.724 7.679,6.61 2.353,3.605 7.183,4.622 10.787,2.269 3.606,-2.353 4.621,-7.183 2.269,-10.788 C 30.766,12.891 26.517,7.954 19.262,4.347 12.238,0.854 5.203,0 0,0"
               style="fill:#e6e6e6;fill-opacity:1;fill-rule:nonzero;stroke:none"
               id="path1394"
               inkscape:connector-curvature="0" />
          </g>
          <g
             id="g1400"
             transform="matrix(2.5304334,0,0,2.5304334,447.20022,514.68927)"
             style="fill:#e6e6e6">
            <path
               d="m 0,0 c -0.372,-6.975 -7.413,-12.376 -15.727,-12.063 -8.312,0.312 -14.75,6.22 -14.377,13.195 0.373,6.975 7.414,12.376 15.727,12.064 C -6.064,12.883 0.373,6.976 0,0"
               style="fill:#e6e6e6;fill-opacity:1;fill-rule:nonzero;stroke:none"
               id="path1398"
               inkscape:connector-curvature="0" />
          </g>
        </g>
        <g
           transform="matrix(0.18667057,0,0,0.18667057,231.48496,478.09963)"
           style="fill:#e6e6e6"
           id="g1416">
          <g
             style="fill:#e6e6e6"
             transform="matrix(2.5304334,0,0,2.5304334,265.4192,319.57515)"
             id="g1406">
            <path
               inkscape:connector-curvature="0"
               id="path1404"
               style="fill:#e6e6e6;fill-opacity:1;fill-rule:nonzero;stroke:none"
               d="m 0,0 c 0,0 -5.197,12.471 -5.197,25.982 0,5.938 4.151,20.23 12.471,18.707 7.429,-1.36 9.354,-13.511 4.1,-25.674 C 6.667,8.118 0,0 0,0 m 159.01,31.178 c -4.481,-18.171 -3.117,-54.042 -50.465,-77.235 -8.22,-4.026 -18.348,-5.791 -30.1,-6.029 -11.297,-0.23 -24.325,1.78 -32.173,5.278 -23.408,10.433 -34.837,24.438 -36.918,30.18 21.824,27.021 24.16,46.54 19.746,60.278 -4.847,15.085 -18.804,23.016 -33.257,13.511 -19.874,-13.07 -19.624,-43.819 -8.654,-67.598 0.713,-1.543 1.473,-3.134 2.282,-4.754 2.332,-4.675 5.093,-9.614 8.448,-14.519 13.394,-19.591 44.691,-39.922 77.948,-39.922 65.475,0 97.694,50.925 105.538,94.575 2.907,16.173 -18.807,20.786 -22.395,6.235" />
          </g>
          <g
             style="fill:#e6e6e6"
             transform="matrix(2.5304334,0,0,2.5304334,552.27976,480.12912)"
             id="g1410">
            <path
               inkscape:connector-curvature="0"
               id="path1408"
               style="fill:#e6e6e6;fill-opacity:1;fill-rule:nonzero;stroke:none"
               d="m 0,0 c -1.948,0 -3.639,0.12 -4.977,0.266 -4.279,0.466 -7.369,4.315 -6.902,8.594 0.469,4.279 4.307,7.367 8.595,6.903 2.584,-0.284 9.285,-0.6 15.603,2.542 4.118,2.047 6.449,4.724 7.679,6.61 2.353,3.605 7.183,4.622 10.787,2.269 3.606,-2.353 4.621,-7.183 2.269,-10.788 C 30.766,12.891 26.517,7.954 19.262,4.347 12.238,0.854 5.203,0 0,0" />
          </g>
          <g
             style="fill:#e6e6e6"
             transform="matrix(2.5304334,0,0,2.5304334,447.20022,514.68927)"
             id="g1414">
            <path
               inkscape:connector-curvature="0"
               id="path1412"
               style="fill:#e6e6e6;fill-opacity:1;fill-rule:nonzero;stroke:none"
               d="m 0,0 c -0.372,-6.975 -7.413,-12.376 -15.727,-12.063 -8.312,0.312 -14.75,6.22 -14.377,13.195 0.373,6.975 7.414,12.376 15.727,12.064 C -6.064,12.883 0.373,6.976 0,0" />
          </g>
        </g>
        <g
           transform="matrix(0.18667057,0,0,0.18667057,553.93966,204.01312)"
           style="fill:#e6e6e6"
           id="g1430">
          <g
             style="fill:#e6e6e6"
             transform="matrix(2.5304334,0,0,2.5304334,265.4192,319.57515)"
             id="g1420">
            <path
               inkscape:connector-curvature="0"
               id="path1418"
               style="fill:#e6e6e6;fill-opacity:1;fill-rule:nonzero;stroke:none"
               d="m 0,0 c 0,0 -5.197,12.471 -5.197,25.982 0,5.938 4.151,20.23 12.471,18.707 7.429,-1.36 9.354,-13.511 4.1,-25.674 C 6.667,8.118 0,0 0,0 m 159.01,31.178 c -4.481,-18.171 -3.117,-54.042 -50.465,-77.235 -8.22,-4.026 -18.348,-5.791 -30.1,-6.029 -11.297,-0.23 -24.325,1.78 -32.173,5.278 -23.408,10.433 -34.837,24.438 -36.918,30.18 21.824,27.021 24.16,46.54 19.746,60.278 -4.847,15.085 -18.804,23.016 -33.257,13.511 -19.874,-13.07 -19.624,-43.819 -8.654,-67.598 0.713,-1.543 1.473,-3.134 2.282,-4.754 2.332,-4.675 5.093,-9.614 8.448,-14.519 13.394,-19.591 44.691,-39.922 77.948,-39.922 65.475,0 97.694,50.925 105.538,94.575 2.907,16.173 -18.807,20.786 -22.395,6.235" />
          </g>
          <g
             style="fill:#e6e6e6"
             transform="matrix(2.5304334,0,0,2.5304334,552.27976,480.12912)"
             id="g1424">
            <path
               inkscape:connector-curvature="0"
               id="path1422"
               style="fill:#e6e6e6;fill-opacity:1;fill-rule:nonzero;stroke:none"
               d="m 0,0 c -1.948,0 -3.639,0.12 -4.977,0.266 -4.279,0.466 -7.369,4.315 -6.902,8.594 0.469,4.279 4.307,7.367 8.595,6.903 2.584,-0.284 9.285,-0.6 15.603,2.542 4.118,2.047 6.449,4.724 7.679,6.61 2.353,3.605 7.183,4.622 10.787,2.269 3.606,-2.353 4.621,-7.183 2.269,-10.788 C 30.766,12.891 26.517,7.954 19.262,4.347 12.238,0.854 5.203,0 0,0" />
          </g>
          <g
             style="fill:#e6e6e6"
             transform="matrix(2.5304334,0,0,2.5304334,447.20022,514.68927)"
             id="g1428">
            <path
               inkscape:connector-curvature="0"
               id="path1426"
               style="fill:#e6e6e6;fill-opacity:1;fill-rule:nonzero;stroke:none"
               d="m 0,0 c -0.372,-6.975 -7.413,-12.376 -15.727,-12.063 -8.312,0.312 -14.75,6.22 -14.377,13.195 0.373,6.975 7.414,12.376 15.727,12.064 C -6.064,12.883 0.373,6.976 0,0" />
          </g>
        </g>
        <g
           id="g1444"
           style="fill:#e6e6e6"
           transform="matrix(0.18667057,0,0,0.18667057,604.09929,361.65765)">
          <g
             id="g1434"
             transform="matrix(2.5304334,0,0,2.5304334,265.4192,319.57515)"
             style="fill:#e6e6e6">
            <path
               d="m 0,0 c 0,0 -5.197,12.471 -5.197,25.982 0,5.938 4.151,20.23 12.471,18.707 7.429,-1.36 9.354,-13.511 4.1,-25.674 C 6.667,8.118 0,0 0,0 m 159.01,31.178 c -4.481,-18.171 -3.117,-54.042 -50.465,-77.235 -8.22,-4.026 -18.348,-5.791 -30.1,-6.029 -11.297,-0.23 -24.325,1.78 -32.173,5.278 -23.408,10.433 -34.837,24.438 -36.918,30.18 21.824,27.021 24.16,46.54 19.746,60.278 -4.847,15.085 -18.804,23.016 -33.257,13.511 -19.874,-13.07 -19.624,-43.819 -8.654,-67.598 0.713,-1.543 1.473,-3.134 2.282,-4.754 2.332,-4.675 5.093,-9.614 8.448,-14.519 13.394,-19.591 44.691,-39.922 77.948,-39.922 65.475,0 97.694,50.925 105.538,94.575 2.907,16.173 -18.807,20.786 -22.395,6.235"
               style="fill:#e6e6e6;fill-opacity:1;fill-rule:nonzero;stroke:none"
               id="path1432"
               inkscape:connector-curvature="0" />
          </g>
          <g
             id="g1438"
             transform="matrix(2.5304334,0,0,2.5304334,552.27976,480.12912)"
             style="fill:#e6e6e6">
            <path
               d="m 0,0 c -1.948,0 -3.639,0.12 -4.977,0.266 -4.279,0.466 -7.369,4.315 -6.902,8.594 0.469,4.279 4.307,7.367 8.595,6.903 2.584,-0.284 9.285,-0.6 15.603,2.542 4.118,2.047 6.449,4.724 7.679,6.61 2.353,3.605 7.183,4.622 10.787,2.269 3.606,-2.353 4.621,-7.183 2.269,-10.788 C 30.766,12.891 26.517,7.954 19.262,4.347 12.238,0.854 5.203,0 0,0"
               style="fill:#e6e6e6;fill-opacity:1;fill-rule:nonzero;stroke:none"
               id="path1436"
               inkscape:connector-curvature="0" />
          </g>
          <g
             id="g1442"
             transform="matrix(2.5304334,0,0,2.5304334,447.20022,514.68927)"
             style="fill:#e6e6e6">
            <path
               d="m 0,0 c -0.372,-6.975 -7.413,-12.376 -15.727,-12.063 -8.312,0.312 -14.75,6.22 -14.377,13.195 0.373,6.975 7.414,12.376 15.727,12.064 C -6.064,12.883 0.373,6.976 0,0"
               style="fill:#e6e6e6;fill-opacity:1;fill-rule:nonzero;stroke:none"
               id="path1440"
               inkscape:connector-curvature="0" />
          </g>
        </g>
        <g
           transform="matrix(0.18667057,0,0,0.18667057,179.53392,311.49802)"
           style="fill:#e6e6e6"
           id="g1458">
          <g
             style="fill:#e6e6e6"
             transform="matrix(2.5304334,0,0,2.5304334,265.4192,319.57515)"
             id="g1448">
            <path
               inkscape:connector-curvature="0"
               id="path1446"
               style="fill:#e6e6e6;fill-opacity:1;fill-rule:nonzero;stroke:none"
               d="m 0,0 c 0,0 -5.197,12.471 -5.197,25.982 0,5.938 4.151,20.23 12.471,18.707 7.429,-1.36 9.354,-13.511 4.1,-25.674 C 6.667,8.118 0,0 0,0 m 159.01,31.178 c -4.481,-18.171 -3.117,-54.042 -50.465,-77.235 -8.22,-4.026 -18.348,-5.791 -30.1,-6.029 -11.297,-0.23 -24.325,1.78 -32.173,5.278 -23.408,10.433 -34.837,24.438 -36.918,30.18 21.824,27.021 24.16,46.54 19.746,60.278 -4.847,15.085 -18.804,23.016 -33.257,13.511 -19.874,-13.07 -19.624,-43.819 -8.654,-67.598 0.713,-1.543 1.473,-3.134 2.282,-4.754 2.332,-4.675 5.093,-9.614 8.448,-14.519 13.394,-19.591 44.691,-39.922 77.948,-39.922 65.475,0 97.694,50.925 105.538,94.575 2.907,16.173 -18.807,20.786 -22.395,6.235" />
          </g>
          <g
             style="fill:#e6e6e6"
             transform="matrix(2.5304334,0,0,2.5304334,552.27976,480.12912)"
             id="g1452">
            <path
               inkscape:connector-curvature="0"
               id="path1450"
               style="fill:#e6e6e6;fill-opacity:1;fill-rule:nonzero;stroke:none"
               d="m 0,0 c -1.948,0 -3.639,0.12 -4.977,0.266 -4.279,0.466 -7.369,4.315 -6.902,8.594 0.469,4.279 4.307,7.367 8.595,6.903 2.584,-0.284 9.285,-0.6 15.603,2.542 4.118,2.047 6.449,4.724 7.679,6.61 2.353,3.605 7.183,4.622 10.787,2.269 3.606,-2.353 4.621,-7.183 2.269,-10.788 C 30.766,12.891 26.517,7.954 19.262,4.347 12.238,0.854 5.203,0 0,0" />
          </g>
          <g
             style="fill:#e6e6e6"
             transform="matrix(2.5304334,0,0,2.5304334,447.20022,514.68927)"
             id="g1456">
            <path
               inkscape:connector-curvature="0"
               id="path1454"
               style="fill:#e6e6e6;fill-opacity:1;fill-rule:nonzero;stroke:none"
               d="m 0,0 c -0.372,-6.975 -7.413,-12.376 -15.727,-12.063 -8.312,0.312 -14.75,6.22 -14.377,13.195 0.373,6.975 7.414,12.376 15.727,12.064 C -6.064,12.883 0.373,6.976 0,0" />
          </g>
        </g>
        <g
           id="g1472"
           style="fill:#e6e6e6"
           transform="matrix(0.18667057,0,0,0.18667057,346.13553,583.79311)">
          <g
             id="g1462"
             transform="matrix(2.5304334,0,0,2.5304334,265.4192,319.57515)"
             style="fill:#e6e6e6">
            <path
               d="m 0,0 c 0,0 -5.197,12.471 -5.197,25.982 0,5.938 4.151,20.23 12.471,18.707 7.429,-1.36 9.354,-13.511 4.1,-25.674 C 6.667,8.118 0,0 0,0 m 159.01,31.178 c -4.481,-18.171 -3.117,-54.042 -50.465,-77.235 -8.22,-4.026 -18.348,-5.791 -30.1,-6.029 -11.297,-0.23 -24.325,1.78 -32.173,5.278 -23.408,10.433 -34.837,24.438 -36.918,30.18 21.824,27.021 24.16,46.54 19.746,60.278 -4.847,15.085 -18.804,23.016 -33.257,13.511 -19.874,-13.07 -19.624,-43.819 -8.654,-67.598 0.713,-1.543 1.473,-3.134 2.282,-4.754 2.332,-4.675 5.093,-9.614 8.448,-14.519 13.394,-19.591 44.691,-39.922 77.948,-39.922 65.475,0 97.694,50.925 105.538,94.575 2.907,16.173 -18.807,20.786 -22.395,6.235"
               style="fill:#e6e6e6;fill-opacity:1;fill-rule:nonzero;stroke:none"
               id="path1460"
               inkscape:connector-curvature="0" />
          </g>
          <g
             id="g1466"
             transform="matrix(2.5304334,0,0,2.5304334,552.27976,480.12912)"
             style="fill:#e6e6e6">
            <path
               d="m 0,0 c -1.948,0 -3.639,0.12 -4.977,0.266 -4.279,0.466 -7.369,4.315 -6.902,8.594 0.469,4.279 4.307,7.367 8.595,6.903 2.584,-0.284 9.285,-0.6 15.603,2.542 4.118,2.047 6.449,4.724 7.679,6.61 2.353,3.605 7.183,4.622 10.787,2.269 3.606,-2.353 4.621,-7.183 2.269,-10.788 C 30.766,12.891 26.517,7.954 19.262,4.347 12.238,0.854 5.203,0 0,0"
               style="fill:#e6e6e6;fill-opacity:1;fill-rule:nonzero;stroke:none"
               id="path1464"
               inkscape:connector-curvature="0" />
          </g>
          <g
             id="g1470"
             transform="matrix(2.5304334,0,0,2.5304334,447.20022,514.68927)"
             style="fill:#e6e6e6">
            <path
               d="m 0,0 c -0.372,-6.975 -7.413,-12.376 -15.727,-12.063 -8.312,0.312 -14.75,6.22 -14.377,13.195 0.373,6.975 7.414,12.376 15.727,12.064 C -6.064,12.883 0.373,6.976 0,0"
               style="fill:#e6e6e6;fill-opacity:1;fill-rule:nonzero;stroke:none"
               id="path1468"
               inkscape:connector-curvature="0" />
          </g>
        </g>
        <g
           id="g1486"
           style="fill:#e6e6e6"
           transform="matrix(0.18667057,0,0,0.18667057,315.68146,187.89038)">
          <g
             id="g1476"
             transform="matrix(2.5304334,0,0,2.5304334,265.4192,319.57515)"
             style="fill:#e6e6e6">
            <path
               d="m 0,0 c 0,0 -5.197,12.471 -5.197,25.982 0,5.938 4.151,20.23 12.471,18.707 7.429,-1.36 9.354,-13.511 4.1,-25.674 C 6.667,8.118 0,0 0,0 m 159.01,31.178 c -4.481,-18.171 -3.117,-54.042 -50.465,-77.235 -8.22,-4.026 -18.348,-5.791 -30.1,-6.029 -11.297,-0.23 -24.325,1.78 -32.173,5.278 -23.408,10.433 -34.837,24.438 -36.918,30.18 21.824,27.021 24.16,46.54 19.746,60.278 -4.847,15.085 -18.804,23.016 -33.257,13.511 -19.874,-13.07 -19.624,-43.819 -8.654,-67.598 0.713,-1.543 1.473,-3.134 2.282,-4.754 2.332,-4.675 5.093,-9.614 8.448,-14.519 13.394,-19.591 44.691,-39.922 77.948,-39.922 65.475,0 97.694,50.925 105.538,94.575 2.907,16.173 -18.807,20.786 -22.395,6.235"
               style="fill:#e6e6e6;fill-opacity:1;fill-rule:nonzero;stroke:none"
               id="path1474"
               inkscape:connector-curvature="0" />
          </g>
          <g
             id="g1480"
             transform="matrix(2.5304334,0,0,2.5304334,552.27976,480.12912)"
             style="fill:#e6e6e6">
            <path
               d="m 0,0 c -1.948,0 -3.639,0.12 -4.977,0.266 -4.279,0.466 -7.369,4.315 -6.902,8.594 0.469,4.279 4.307,7.367 8.595,6.903 2.584,-0.284 9.285,-0.6 15.603,2.542 4.118,2.047 6.449,4.724 7.679,6.61 2.353,3.605 7.183,4.622 10.787,2.269 3.606,-2.353 4.621,-7.183 2.269,-10.788 C 30.766,12.891 26.517,7.954 19.262,4.347 12.238,0.854 5.203,0 0,0"
               style="fill:#e6e6e6;fill-opacity:1;fill-rule:nonzero;stroke:none"
               id="path1478"
               inkscape:connector-curvature="0" />
          </g>
          <g
             id="g1484"
             transform="matrix(2.5304334,0,0,2.5304334,447.20022,514.68927)"
             style="fill:#e6e6e6">
            <path
               d="m 0,0 c -0.372,-6.975 -7.413,-12.376 -15.727,-12.063 -8.312,0.312 -14.75,6.22 -14.377,13.195 0.373,6.975 7.414,12.376 15.727,12.064 C -6.064,12.883 0.373,6.976 0,0"
               style="fill:#e6e6e6;fill-opacity:1;fill-rule:nonzero;stroke:none"
               id="path1482"
               inkscape:connector-curvature="0" />
          </g>
        </g>
        <g
           transform="matrix(0.18667057,0,0,0.18667057,124.00005,612.45575)"
           style="fill:#e6e6e6"
           id="g1500">
          <g
             style="fill:#e6e6e6"
             transform="matrix(2.5304334,0,0,2.5304334,265.4192,319.57515)"
             id="g1490">
            <path
               inkscape:connector-curvature="0"
               id="path1488"
               style="fill:#e6e6e6;fill-opacity:1;fill-rule:nonzero;stroke:none"
               d="m 0,0 c 0,0 -5.197,12.471 -5.197,25.982 0,5.938 4.151,20.23 12.471,18.707 7.429,-1.36 9.354,-13.511 4.1,-25.674 C 6.667,8.118 0,0 0,0 m 159.01,31.178 c -4.481,-18.171 -3.117,-54.042 -50.465,-77.235 -8.22,-4.026 -18.348,-5.791 -30.1,-6.029 -11.297,-0.23 -24.325,1.78 -32.173,5.278 -23.408,10.433 -34.837,24.438 -36.918,30.18 21.824,27.021 24.16,46.54 19.746,60.278 -4.847,15.085 -18.804,23.016 -33.257,13.511 -19.874,-13.07 -19.624,-43.819 -8.654,-67.598 0.713,-1.543 1.473,-3.134 2.282,-4.754 2.332,-4.675 5.093,-9.614 8.448,-14.519 13.394,-19.591 44.691,-39.922 77.948,-39.922 65.475,0 97.694,50.925 105.538,94.575 2.907,16.173 -18.807,20.786 -22.395,6.235" />
          </g>
          <g
             style="fill:#e6e6e6"
             transform="matrix(2.5304334,0,0,2.5304334,552.27976,480.12912)"
             id="g1494">
            <path
               inkscape:connector-curvature="0"
               id="path1492"
               style="fill:#e6e6e6;fill-opacity:1;fill-rule:nonzero;stroke:none"
               d="m 0,0 c -1.948,0 -3.639,0.12 -4.977,0.266 -4.279,0.466 -7.369,4.315 -6.902,8.594 0.469,4.279 4.307,7.367 8.595,6.903 2.584,-0.284 9.285,-0.6 15.603,2.542 4.118,2.047 6.449,4.724 7.679,6.61 2.353,3.605 7.183,4.622 10.787,2.269 3.606,-2.353 4.621,-7.183 2.269,-10.788 C 30.766,12.891 26.517,7.954 19.262,4.347 12.238,0.854 5.203,0 0,0" />
          </g>
          <g
             style="fill:#e6e6e6"
             transform="matrix(2.5304334,0,0,2.5304334,447.20022,514.68927)"
             id="g1498">
            <path
               inkscape:connector-curvature="0"
               id="path1496"
               style="fill:#e6e6e6;fill-opacity:1;fill-rule:nonzero;stroke:none"
               d="m 0,0 c -0.372,-6.975 -7.413,-12.376 -15.727,-12.063 -8.312,0.312 -14.75,6.22 -14.377,13.195 0.373,6.975 7.414,12.376 15.727,12.064 C -6.064,12.883 0.373,6.976 0,0" />
          </g>
        </g>
        <g
           id="g1514"
           style="fill:#e6e6e6"
           transform="matrix(0.18667057,0,0,0.18667057,-12.147495,438.68849)">
          <g
             id="g1504"
             transform="matrix(2.5304334,0,0,2.5304334,265.4192,319.57515)"
             style="fill:#e6e6e6">
            <path
               d="m 0,0 c 0,0 -5.197,12.471 -5.197,25.982 0,5.938 4.151,20.23 12.471,18.707 7.429,-1.36 9.354,-13.511 4.1,-25.674 C 6.667,8.118 0,0 0,0 m 159.01,31.178 c -4.481,-18.171 -3.117,-54.042 -50.465,-77.235 -8.22,-4.026 -18.348,-5.791 -30.1,-6.029 -11.297,-0.23 -24.325,1.78 -32.173,5.278 -23.408,10.433 -34.837,24.438 -36.918,30.18 21.824,27.021 24.16,46.54 19.746,60.278 -4.847,15.085 -18.804,23.016 -33.257,13.511 -19.874,-13.07 -19.624,-43.819 -8.654,-67.598 0.713,-1.543 1.473,-3.134 2.282,-4.754 2.332,-4.675 5.093,-9.614 8.448,-14.519 13.394,-19.591 44.691,-39.922 77.948,-39.922 65.475,0 97.694,50.925 105.538,94.575 2.907,16.173 -18.807,20.786 -22.395,6.235"
               style="fill:#e6e6e6;fill-opacity:1;fill-rule:nonzero;stroke:none"
               id="path1502"
               inkscape:connector-curvature="0" />
          </g>
          <g
             id="g1508"
             transform="matrix(2.5304334,0,0,2.5304334,552.27976,480.12912)"
             style="fill:#e6e6e6">
            <path
               d="m 0,0 c -1.948,0 -3.639,0.12 -4.977,0.266 -4.279,0.466 -7.369,4.315 -6.902,8.594 0.469,4.279 4.307,7.367 8.595,6.903 2.584,-0.284 9.285,-0.6 15.603,2.542 4.118,2.047 6.449,4.724 7.679,6.61 2.353,3.605 7.183,4.622 10.787,2.269 3.606,-2.353 4.621,-7.183 2.269,-10.788 C 30.766,12.891 26.517,7.954 19.262,4.347 12.238,0.854 5.203,0 0,0"
               style="fill:#e6e6e6;fill-opacity:1;fill-rule:nonzero;stroke:none"
               id="path1506"
               inkscape:connector-curvature="0" />
          </g>
          <g
             id="g1512"
             transform="matrix(2.5304334,0,0,2.5304334,447.20022,514.68927)"
             style="fill:#e6e6e6">
            <path
               d="m 0,0 c -0.372,-6.975 -7.413,-12.376 -15.727,-12.063 -8.312,0.312 -14.75,6.22 -14.377,13.195 0.373,6.975 7.414,12.376 15.727,12.064 C -6.064,12.883 0.373,6.976 0,0"
               style="fill:#e6e6e6;fill-opacity:1;fill-rule:nonzero;stroke:none"
               id="path1510"
               inkscape:connector-curvature="0" />
          </g>
        </g>
        <g
           transform="matrix(0.18667057,0,0,0.18667057,43.386372,195.05604)"
           style="fill:#e6e6e6"
           id="g1528">
          <g
             style="fill:#e6e6e6"
             transform="matrix(2.5304334,0,0,2.5304334,265.4192,319.57515)"
             id="g1518">
            <path
               inkscape:connector-curvature="0"
               id="path1516"
               style="fill:#e6e6e6;fill-opacity:1;fill-rule:nonzero;stroke:none"
               d="m 0,0 c 0,0 -5.197,12.471 -5.197,25.982 0,5.938 4.151,20.23 12.471,18.707 7.429,-1.36 9.354,-13.511 4.1,-25.674 C 6.667,8.118 0,0 0,0 m 159.01,31.178 c -4.481,-18.171 -3.117,-54.042 -50.465,-77.235 -8.22,-4.026 -18.348,-5.791 -30.1,-6.029 -11.297,-0.23 -24.325,1.78 -32.173,5.278 -23.408,10.433 -34.837,24.438 -36.918,30.18 21.824,27.021 24.16,46.54 19.746,60.278 -4.847,15.085 -18.804,23.016 -33.257,13.511 -19.874,-13.07 -19.624,-43.819 -8.654,-67.598 0.713,-1.543 1.473,-3.134 2.282,-4.754 2.332,-4.675 5.093,-9.614 8.448,-14.519 13.394,-19.591 44.691,-39.922 77.948,-39.922 65.475,0 97.694,50.925 105.538,94.575 2.907,16.173 -18.807,20.786 -22.395,6.235" />
          </g>
          <g
             style="fill:#e6e6e6"
             transform="matrix(2.5304334,0,0,2.5304334,552.27976,480.12912)"
             id="g1522">
            <path
               inkscape:connector-curvature="0"
               id="path1520"
               style="fill:#e6e6e6;fill-opacity:1;fill-rule:nonzero;stroke:none"
               d="m 0,0 c -1.948,0 -3.639,0.12 -4.977,0.266 -4.279,0.466 -7.369,4.315 -6.902,8.594 0.469,4.279 4.307,7.367 8.595,6.903 2.584,-0.284 9.285,-0.6 15.603,2.542 4.118,2.047 6.449,4.724 7.679,6.61 2.353,3.605 7.183,4.622 10.787,2.269 3.606,-2.353 4.621,-7.183 2.269,-10.788 C 30.766,12.891 26.517,7.954 19.262,4.347 12.238,0.854 5.203,0 0,0" />
          </g>
          <g
             style="fill:#e6e6e6"
             transform="matrix(2.5304334,0,0,2.5304334,447.20022,514.68927)"
             id="g1526">
            <path
               inkscape:connector-curvature="0"
               id="path1524"
               style="fill:#e6e6e6;fill-opacity:1;fill-rule:nonzero;stroke:none"
               d="m 0,0 c -0.372,-6.975 -7.413,-12.376 -15.727,-12.063 -8.312,0.312 -14.75,6.22 -14.377,13.195 0.373,6.975 7.414,12.376 15.727,12.064 C -6.064,12.883 0.373,6.976 0,0" />
          </g>
        </g>
        <g
           id="g1542"
           style="fill:#e6e6e6"
           transform="matrix(0.18667057,0,0,0.18667057,668.59023,614.24716)">
          <g
             id="g1532"
             transform="matrix(2.5304334,0,0,2.5304334,265.4192,319.57515)"
             style="fill:#e6e6e6">
            <path
               d="m 0,0 c 0,0 -5.197,12.471 -5.197,25.982 0,5.938 4.151,20.23 12.471,18.707 7.429,-1.36 9.354,-13.511 4.1,-25.674 C 6.667,8.118 0,0 0,0 m 159.01,31.178 c -4.481,-18.171 -3.117,-54.042 -50.465,-77.235 -8.22,-4.026 -18.348,-5.791 -30.1,-6.029 -11.297,-0.23 -24.325,1.78 -32.173,5.278 -23.408,10.433 -34.837,24.438 -36.918,30.18 21.824,27.021 24.16,46.54 19.746,60.278 -4.847,15.085 -18.804,23.016 -33.257,13.511 -19.874,-13.07 -19.624,-43.819 -8.654,-67.598 0.713,-1.543 1.473,-3.134 2.282,-4.754 2.332,-4.675 5.093,-9.614 8.448,-14.519 13.394,-19.591 44.691,-39.922 77.948,-39.922 65.475,0 97.694,50.925 105.538,94.575 2.907,16.173 -18.807,20.786 -22.395,6.235"
               style="fill:#e6e6e6;fill-opacity:1;fill-rule:nonzero;stroke:none"
               id="path1530"
               inkscape:connector-curvature="0" />
          </g>
          <g
             id="g1536"
             transform="matrix(2.5304334,0,0,2.5304334,552.27976,480.12912)"
             style="fill:#e6e6e6">
            <path
               d="m 0,0 c -1.948,0 -3.639,0.12 -4.977,0.266 -4.279,0.466 -7.369,4.315 -6.902,8.594 0.469,4.279 4.307,7.367 8.595,6.903 2.584,-0.284 9.285,-0.6 15.603,2.542 4.118,2.047 6.449,4.724 7.679,6.61 2.353,3.605 7.183,4.622 10.787,2.269 3.606,-2.353 4.621,-7.183 2.269,-10.788 C 30.766,12.891 26.517,7.954 19.262,4.347 12.238,0.854 5.203,0 0,0"
               style="fill:#e6e6e6;fill-opacity:1;fill-rule:nonzero;stroke:none"
               id="path1534"
               inkscape:connector-curvature="0" />
          </g>
          <g
             id="g1540"
             transform="matrix(2.5304334,0,0,2.5304334,447.20022,514.68927)"
             style="fill:#e6e6e6">
            <path
               d="m 0,0 c -0.372,-6.975 -7.413,-12.376 -15.727,-12.063 -8.312,0.312 -14.75,6.22 -14.377,13.195 0.373,6.975 7.414,12.376 15.727,12.064 C -6.064,12.883 0.373,6.976 0,0"
               style="fill:#e6e6e6;fill-opacity:1;fill-rule:nonzero;stroke:none"
               id="path1538"
               inkscape:connector-curvature="0" />
          </g>
        </g>
      </g>
    </g>
  </g>
</svg>
