<?xml version="1.0" encoding="UTF-8" standalone="no"?>
<!-- Created with Inkscape (http://www.inkscape.org/) -->

<svg
   xmlns:dc="http://purl.org/dc/elements/1.1/"
   xmlns:cc="http://creativecommons.org/ns#"
   xmlns:rdf="http://www.w3.org/1999/02/22-rdf-syntax-ns#"
   xmlns:svg="http://www.w3.org/2000/svg"
   xmlns="http://www.w3.org/2000/svg"
   xmlns:sodipodi="http://sodipodi.sourceforge.net/DTD/sodipodi-0.dtd"
   xmlns:inkscape="http://www.inkscape.org/namespaces/inkscape"
   width="210mm"
   height="297mm"
   viewBox="0 0 210 297"
   version="1.1"
   id="svg8"
   inkscape:version="0.92.5 (2060ec1f9f, 2020-04-08)"
   sodipodi:docname="logo.svg">
  <defs
     id="defs2">
    <clipPath
       id="clipPath64"
       clipPathUnits="userSpaceOnUse">
      <path
         inkscape:connector-curvature="0"
         id="path62"
         d="M 0,595.276 H 841.89 V 0 H 0 Z" />
    </clipPath>
    <clipPath
       id="clipPath141"
       clipPathUnits="userSpaceOnUse">
      <path
         inkscape:connector-curvature="0"
         id="path139"
         d="M 0,1080 H 1920 V 0 H 0 Z" />
    </clipPath>
    <clipPath
       id="clipPath361"
       clipPathUnits="userSpaceOnUse">
      <path
         inkscape:connector-curvature="0"
         id="path359"
         d="m 117.953,500.547 h 19.279 v -12.423 h -19.279 z" />
    </clipPath>
    <clipPath
       id="clipPath377"
       clipPathUnits="userSpaceOnUse">
      <path
         inkscape:connector-curvature="0"
         id="path375"
         d="m 117.584,502.212 h 19.651 v -14.435 h -19.651 z" />
    </clipPath>
    <clipPath
       id="clipPath393"
       clipPathUnits="userSpaceOnUse">
      <path
         inkscape:connector-curvature="0"
         id="path391"
         d="m 220.045,515.184 h 19.279 v -12.422 h -19.279 z" />
    </clipPath>
    <clipPath
       id="clipPath409"
       clipPathUnits="userSpaceOnUse">
      <path
         inkscape:connector-curvature="0"
         id="path407"
         d="m 219.676,516.849 h 19.652 v -14.434 h -19.652 z" />
    </clipPath>
    <clipPath
       id="clipPath449"
       clipPathUnits="userSpaceOnUse">
      <path
         inkscape:connector-curvature="0"
         id="path447"
         d="m 198.205,455.08 h 13.547 v -34.19 h -13.547 z" />
    </clipPath>
    <clipPath
       id="clipPath857"
       clipPathUnits="userSpaceOnUse">
      <path
         inkscape:connector-curvature="0"
         id="path855"
         d="m 797.261,972.869 c 0,0 152.604,-26.566 162.224,-15.227 v 0 c 9.622,11.339 -7.297,25.57 -7.297,25.57 v 0 c -0.379,8.52 -15.674,15.938 -15.674,15.938 v 0 c -10.137,30.022 -65.634,30.753 -65.634,30.753 v 0 c -59.625,-5.394 -73.619,-57.034 -73.619,-57.034" />
    </clipPath>
    <clipPath
       id="clipPath869"
       clipPathUnits="userSpaceOnUse">
      <path
         inkscape:connector-curvature="0"
         id="path867"
         d="m 824.625,944.977 h 3.402 v -2.159 h -3.402 z" />
    </clipPath>
    <clipPath
       id="clipPath893"
       clipPathUnits="userSpaceOnUse">
      <path
         inkscape:connector-curvature="0"
         id="path891"
         d="M 0,1080 H 1920 V 0 H 0 Z" />
    </clipPath>
    <clipPath
       id="clipPath905"
       clipPathUnits="userSpaceOnUse">
      <path
         inkscape:connector-curvature="0"
         id="path903"
         d="m 859.324,988.265 c -41.279,-3.512 -70.394,-15.119 -74.275,-28.333 v 0 c -3.88,-13.214 14.279,-19.763 14.279,-19.763 v 0 c 71.527,24.933 115.929,16.517 138.198,8.102 v 0 c 11.462,-4.33 17.061,-8.661 17.481,-8.446 v 0 c 12.601,6.446 23.447,20.966 9.887,33.547 v 0 c -10.94,10.149 -46.072,15.902 -80.92,15.901 v 0 c -8.343,0 -16.675,-0.33 -24.65,-1.008" />
    </clipPath>
    <clipPath
       id="clipPath929"
       clipPathUnits="userSpaceOnUse">
      <path
         inkscape:connector-curvature="0"
         id="path927"
         d="M 0,1080 H 1920 V 0 H 0 Z" />
    </clipPath>
    <clipPath
       id="clipPath1001"
       clipPathUnits="userSpaceOnUse">
      <path
         inkscape:connector-curvature="0"
         id="path999"
         d="m 1128.27,937.367 h 18.48 v -11.675 h -18.48 z" />
    </clipPath>
    <clipPath
       id="clipPath1017"
       clipPathUnits="userSpaceOnUse">
      <path
         inkscape:connector-curvature="0"
         id="path1015"
         d="m 1127.63,938.738 h 19.44 v -12.885 h -19.44 z" />
    </clipPath>
    <clipPath
       id="clipPath1033"
       clipPathUnits="userSpaceOnUse">
      <path
         inkscape:connector-curvature="0"
         id="path1031"
         d="m 1032.34,940.895 h 18.48 V 929.22 h -18.48 z" />
    </clipPath>
    <clipPath
       id="clipPath1049"
       clipPathUnits="userSpaceOnUse">
      <path
         inkscape:connector-curvature="0"
         id="path1047"
         d="m 1031.7,942.266 h 19.44 v -12.885 h -19.44 z" />
    </clipPath>
    <clipPath
       id="clipPath1161"
       clipPathUnits="userSpaceOnUse">
      <path
         inkscape:connector-curvature="0"
         id="path1159"
         d="m 1009.841,973.408 c 0,0 152.604,-26.567 162.225,-15.228 v 0 c 9.621,11.34 -7.298,25.57 -7.298,25.57 v 0 c -0.379,8.522 -15.674,15.938 -15.674,15.938 v 0 c -10.137,30.022 -65.634,30.753 -65.634,30.753 v 0 c -59.625,-5.395 -73.619,-57.033 -73.619,-57.033" />
    </clipPath>
    <clipPath
       id="clipPath1173"
       clipPathUnits="userSpaceOnUse">
      <path
         inkscape:connector-curvature="0"
         id="path1171"
         d="m 1037.21,945.516 h 3.4 v -2.16 h -3.4 z" />
    </clipPath>
    <clipPath
       id="clipPath1197"
       clipPathUnits="userSpaceOnUse">
      <path
         inkscape:connector-curvature="0"
         id="path1195"
         d="M 0,1080 H 1920 V 0 H 0 Z" />
    </clipPath>
    <clipPath
       id="clipPath1209"
       clipPathUnits="userSpaceOnUse">
      <path
         inkscape:connector-curvature="0"
         id="path1207"
         d="m 1071.905,988.803 c -41.28,-3.512 -70.395,-15.119 -74.276,-28.333 v 0 c -3.88,-13.214 14.279,-19.763 14.279,-19.763 v 0 c 71.527,24.932 115.928,16.517 138.197,8.102 v 0 c 11.462,-4.33 17.063,-8.661 17.483,-8.446 v 0 c 12.6,6.446 23.447,20.968 9.886,33.547 v 0 c -10.94,10.149 -46.072,15.902 -80.919,15.901 v 0 c -8.344,0 -16.675,-0.33 -24.65,-1.008" />
    </clipPath>
    <clipPath
       id="clipPath1233"
       clipPathUnits="userSpaceOnUse">
      <path
         inkscape:connector-curvature="0"
         id="path1231"
         d="M 0,1080 H 1920 V 0 H 0 Z" />
    </clipPath>
    <clipPath
       id="clipPath1285"
       clipPathUnits="userSpaceOnUse">
      <path
         inkscape:connector-curvature="0"
         id="path1283"
         d="m 1111.32,881.883 h 12.77 v -34.194 h -12.77 z" />
    </clipPath>
    <clipPath
       id="clipPath1349"
       clipPathUnits="userSpaceOnUse">
      <path
         inkscape:connector-curvature="0"
         id="path1347"
         d="M 368.729,981.651 H 485.337 V 841.66 H 368.729 Z" />
    </clipPath>
    <clipPath
       id="clipPath1365"
       clipPathUnits="userSpaceOnUse">
      <path
         inkscape:connector-curvature="0"
         id="path1363"
         d="m 506.642,895.753 h 14.274 v -22.014 h -14.274 z" />
    </clipPath>
    <clipPath
       id="clipPath1389"
       clipPathUnits="userSpaceOnUse">
      <path
         inkscape:connector-curvature="0"
         id="path1387"
         d="m 407.34,961.96 h 16.467 V 943.591 H 407.34 Z" />
    </clipPath>
    <clipPath
       id="clipPath1409"
       clipPathUnits="userSpaceOnUse">
      <path
         inkscape:connector-curvature="0"
         id="path1407"
         d="m 492.687,957.523 h 7.361 v -8.472 h -7.361 z" />
    </clipPath>
    <clipPath
       id="clipPath1433"
       clipPathUnits="userSpaceOnUse">
      <path
         inkscape:connector-curvature="0"
         id="path1431"
         d="m 439.92,986.499 h 0.068 v -0.504 h -0.068 z" />
    </clipPath>
    <clipPath
       id="clipPath1465"
       clipPathUnits="userSpaceOnUse">
      <path
         inkscape:connector-curvature="0"
         id="path1463"
         d="m 411.914,928.582 h 14.572 v -9.807 h -14.572 z" />
    </clipPath>
    <clipPath
       id="clipPath1493"
       clipPathUnits="userSpaceOnUse">
      <path
         inkscape:connector-curvature="0"
         id="path1491"
         d="m 146.835,197.796 c -27.499,0 -50,-22.5 -50,-50 v 0 -8.109 c 0,-27.499 22.501,-49.999 50,-49.999 v 0 h 1648.65 c 27.499,0 49.999,22.5 49.999,49.999 v 0 8.109 c 0,27.5 -22.5,50 -49.999,50 v 0 z" />
    </clipPath>
    <linearGradient
       id="linearGradient1503"
       spreadMethod="pad"
       gradientTransform="matrix(0,-108.10811,-108.10811,0,971.15973,197.79585)"
       gradientUnits="userSpaceOnUse"
       y2="0"
       x2="1"
       y1="0"
       x1="0">
      <stop
         id="stop1499"
         offset="0"
         style="stop-opacity:1;stop-color:#515050" />
      <stop
         id="stop1501"
         offset="1"
         style="stop-opacity:1;stop-color:#7b7b7b" />
    </linearGradient>
    <clipPath
       id="clipPath1513"
       clipPathUnits="userSpaceOnUse">
      <path
         inkscape:connector-curvature="0"
         id="path1511"
         d="M 0,1080 H 1920 V 0 H 0 Z" />
    </clipPath>
    <clipPath
       id="clipPath1521"
       clipPathUnits="userSpaceOnUse">
      <path
         inkscape:connector-curvature="0"
         id="path1519"
         d="m 531.998,197.796 h 4 V 89.6878 h -4 z" />
    </clipPath>
    <clipPath
       id="clipPath1545"
       clipPathUnits="userSpaceOnUse">
      <path
         inkscape:connector-curvature="0"
         id="path1543"
         d="m 969.16,197.796 h 4 V 89.6878 h -4 z" />
    </clipPath>
    <clipPath
       id="clipPath1569"
       clipPathUnits="userSpaceOnUse">
      <path
         inkscape:connector-curvature="0"
         id="path1567"
         d="m 1406.32,197.796 h 4 V 89.6878 h -4 z" />
    </clipPath>
    <clipPath
       id="clipPath1597"
       clipPathUnits="userSpaceOnUse">
      <path
         inkscape:connector-curvature="0"
         id="path1595"
         d="m 146.835,347.267 c -27.499,0 -50,-22.5 -50,-50.001 v 0 -8.107 c 0,-27.5 22.501,-50 50,-50 v 0 h 1648.65 c 27.499,0 49.999,22.5 49.999,50 v 0 8.107 c 0,27.501 -22.5,50.001 -49.999,50.001 v 0 z" />
    </clipPath>
    <clipPath
       id="clipPath1609"
       clipPathUnits="userSpaceOnUse">
      <path
         inkscape:connector-curvature="0"
         id="path1607"
         d="M 0,1080 H 1920 V 0 H 0 Z" />
    </clipPath>
    <clipPath
       id="clipPath1621"
       clipPathUnits="userSpaceOnUse">
      <path
         inkscape:connector-curvature="0"
         id="path1619"
         d="M 416.241,404.8 H 654.235 V 381.63 H 416.241 Z" />
    </clipPath>
    <clipPath
       id="clipPath1641"
       clipPathUnits="userSpaceOnUse">
      <path
         inkscape:connector-curvature="0"
         id="path1639"
         d="M 416.241,438.168 H 654.235 V 414.997 H 416.241 Z" />
    </clipPath>
    <clipPath
       id="clipPath1661"
       clipPathUnits="userSpaceOnUse">
      <path
         inkscape:connector-curvature="0"
         id="path1659"
         d="M 416.241,471.536 H 654.235 V 448.365 H 416.241 Z" />
    </clipPath>
    <clipPath
       id="clipPath1681"
       clipPathUnits="userSpaceOnUse">
      <path
         inkscape:connector-curvature="0"
         id="path1679"
         d="M 416.241,504.904 H 654.235 V 481.733 H 416.241 Z" />
    </clipPath>
    <clipPath
       id="clipPath1701"
       clipPathUnits="userSpaceOnUse">
      <path
         inkscape:connector-curvature="0"
         id="path1699"
         d="m 416.241,538.271 h 237.994 v -23.17 H 416.241 Z" />
    </clipPath>
    <clipPath
       id="clipPath1721"
       clipPathUnits="userSpaceOnUse">
      <path
         inkscape:connector-curvature="0"
         id="path1719"
         d="M 416.241,571.639 H 654.235 V 548.468 H 416.241 Z" />
    </clipPath>
    <clipPath
       id="clipPath1741"
       clipPathUnits="userSpaceOnUse">
      <path
         inkscape:connector-curvature="0"
         id="path1739"
         d="M 696.055,404.8 H 934.05 V 381.63 H 696.055 Z" />
    </clipPath>
    <clipPath
       id="clipPath1761"
       clipPathUnits="userSpaceOnUse">
      <path
         inkscape:connector-curvature="0"
         id="path1759"
         d="M 696.055,438.168 H 934.05 V 414.997 H 696.055 Z" />
    </clipPath>
    <clipPath
       id="clipPath1781"
       clipPathUnits="userSpaceOnUse">
      <path
         inkscape:connector-curvature="0"
         id="path1779"
         d="M 696.055,471.536 H 934.05 V 448.365 H 696.055 Z" />
    </clipPath>
    <clipPath
       id="clipPath1801"
       clipPathUnits="userSpaceOnUse">
      <path
         inkscape:connector-curvature="0"
         id="path1799"
         d="M 696.055,504.904 H 934.05 V 481.733 H 696.055 Z" />
    </clipPath>
    <clipPath
       id="clipPath1821"
       clipPathUnits="userSpaceOnUse">
      <path
         inkscape:connector-curvature="0"
         id="path1819"
         d="M 696.055,538.271 H 934.05 v -23.17 H 696.055 Z" />
    </clipPath>
    <clipPath
       id="clipPath1841"
       clipPathUnits="userSpaceOnUse">
      <path
         inkscape:connector-curvature="0"
         id="path1839"
         d="M 696.055,571.639 H 934.05 V 548.468 H 696.055 Z" />
    </clipPath>
    <clipPath
       id="clipPath1861"
       clipPathUnits="userSpaceOnUse">
      <path
         inkscape:connector-curvature="0"
         id="path1859"
         d="M 975.867,404.8 H 1213.86 V 381.63 H 975.867 Z" />
    </clipPath>
    <clipPath
       id="clipPath1881"
       clipPathUnits="userSpaceOnUse">
      <path
         inkscape:connector-curvature="0"
         id="path1879"
         d="M 975.867,438.168 H 1213.86 V 414.997 H 975.867 Z" />
    </clipPath>
    <clipPath
       id="clipPath1901"
       clipPathUnits="userSpaceOnUse">
      <path
         inkscape:connector-curvature="0"
         id="path1899"
         d="M 975.867,471.536 H 1213.86 V 448.365 H 975.867 Z" />
    </clipPath>
    <clipPath
       id="clipPath1921"
       clipPathUnits="userSpaceOnUse">
      <path
         inkscape:connector-curvature="0"
         id="path1919"
         d="M 975.867,504.904 H 1213.86 V 481.733 H 975.867 Z" />
    </clipPath>
    <clipPath
       id="clipPath1941"
       clipPathUnits="userSpaceOnUse">
      <path
         inkscape:connector-curvature="0"
         id="path1939"
         d="m 975.867,538.271 h 237.993 v -23.17 H 975.867 Z" />
    </clipPath>
    <clipPath
       id="clipPath1961"
       clipPathUnits="userSpaceOnUse">
      <path
         inkscape:connector-curvature="0"
         id="path1959"
         d="M 975.867,571.639 H 1213.86 V 548.468 H 975.867 Z" />
    </clipPath>
    <clipPath
       id="clipPath2001"
       clipPathUnits="userSpaceOnUse">
      <path
         inkscape:connector-curvature="0"
         id="path1999"
         d="m 1794.49,938.224 h 107.89 v -89.009 h -107.89 z" />
    </clipPath>
  </defs>
  <sodipodi:namedview
     id="base"
     pagecolor="#ffffff"
     bordercolor="#666666"
     borderopacity="1.0"
     inkscape:pageopacity="0.0"
     inkscape:pageshadow="2"
     inkscape:zoom="0.24748737"
     inkscape:cx="355.71429"
     inkscape:cy="807.69026"
     inkscape:document-units="mm"
     inkscape:current-layer="layer1"
     showgrid="false"
     inkscape:window-width="1304"
     inkscape:window-height="704"
     inkscape:window-x="62"
     inkscape:window-y="27"
     inkscape:window-maximized="1" />
  <metadata
     id="metadata5">
    <rdf:RDF>
      <cc:Work
         rdf:about="">
        <dc:format>image/svg+xml</dc:format>
        <dc:type
           rdf:resource="http://purl.org/dc/dcmitype/StillImage" />
        <dc:title></dc:title>
      </cc:Work>
    </rdf:RDF>
  </metadata>
  <g
     inkscape:label="Camada 1"
     inkscape:groupmode="layer"
     id="layer1">
    <g
       transform="matrix(0.42198617,0,0,-0.42198617,-79.894407,278.90695)"
       inkscape:label="care store Logo (1)"
       id="g56">
      <g
         id="g58">
        <g
           clip-path="url(#clipPath64)"
           id="g60">
          <g
             transform="translate(252.7954,222.131)"
             id="g66">
            <path
               inkscape:connector-curvature="0"
               id="path68"
               style="fill:#267eb9;fill-opacity:1;fill-rule:nonzero;stroke:none"
               d="m 0,0 c -8.753,2.054 -17.864,4.377 -17.864,16.971 0,10.091 7.057,17.594 17.595,17.594 8.575,0 14.738,-5.448 18.132,-13.128 L 12.236,18.31 c -2.679,6.252 -7.235,9.914 -12.505,9.914 -5.538,0 -11.254,-3.841 -11.254,-11.253 0,-7.683 6.61,-9.468 13.488,-11.165 8.752,-2.055 17.863,-4.377 17.863,-16.971 0,-10.985 -9.736,-17.595 -20.097,-17.595 -9.467,0 -15.629,5.448 -19.024,13.129 l 5.627,3.126 c 2.679,-6.252 7.234,-9.913 13.397,-9.913 5.627,0 13.755,3.036 13.755,11.253 C 13.486,-3.484 6.876,-1.697 0,0" />
          </g>
          <g
             transform="translate(324.3315,255.8029)"
             id="g70">
            <path
               inkscape:connector-curvature="0"
               id="path72"
               style="fill:#267eb9;fill-opacity:1;fill-rule:nonzero;stroke:none"
               d="M 0,0 H 39.3 V -6.252 H 22.776 V -61.539 H 16.523 V -6.252 H 0 Z" />
          </g>
          <g
             transform="translate(441.1533,199.5334)"
             id="g74">
            <path
               inkscape:connector-curvature="0"
               id="path76"
               style="fill:#267eb9;fill-opacity:1;fill-rule:nonzero;stroke:none"
               d="M 0,0 C 10.807,0 19.649,11.344 19.649,25.455 19.649,39.568 10.807,51.001 0,51.001 -10.808,51.001 -19.561,39.568 -19.561,25.455 -19.561,11.344 -10.808,0 0,0 m 0.089,57.163 c 16.791,0 25.723,-14.737 25.723,-31.708 0,-16.791 -8.932,-31.617 -25.723,-31.617 -16.791,0 -25.902,14.826 -25.902,31.617 0,16.971 9.111,31.708 25.902,31.708" />
          </g>
          <g
             transform="translate(552.4346,236.6896)"
             id="g78">
            <path
               inkscape:connector-curvature="0"
               id="path80"
               style="fill:#267eb9;fill-opacity:1;fill-rule:nonzero;stroke:none"
               d="m 0,0 c 0,7.413 -5.002,12.861 -19.561,12.861 h -5.269 v -25.902 h 5.269 C -5.002,-13.041 0,-7.413 0,0 m -31.082,19.113 h 14.201 C -2.322,19.113 6.253,10.985 6.253,0 c 0,-8.753 -5.449,-15.72 -14.917,-18.31 l 18.668,-24.116 h -7.86 l -17.864,23.133 h -9.11 v -23.133 h -6.252 z" />
          </g>
          <g
             transform="translate(615.04,255.8029)"
             id="g82">
            <path
               inkscape:connector-curvature="0"
               id="path84"
               style="fill:#267eb9;fill-opacity:1;fill-rule:nonzero;stroke:none"
               d="M 0,0 H 34.834 V -6.252 H 6.253 v -25.902 h 28.581 v -6.252 H 6.253 v -16.88 h 28.581 v -6.253 H 0 Z" />
          </g>
          <g
             transform="translate(482.3008,326.7985)"
             id="g86">
            <path
               inkscape:connector-curvature="0"
               id="path88"
               style="fill:#267eb9;fill-opacity:1;fill-rule:nonzero;stroke:none"
               d="m 0,0 c -7.202,-8.947 -14.626,-17.876 -22.976,-18.216 -6.75,-0.274 -10.265,6.095 -10.549,13.097 -1.017,25.003 9.034,54.964 8.912,57.965 0.763,5.792 -9.57,13.635 -12.571,13.514 l -13.004,-0.529 c -2.5,-0.102 -5,-0.204 -13.291,0.461 -3.166,10.139 -10.29,12.855 -16.291,12.611 -6.502,-0.264 -12.318,-5.009 -12.034,-12.009 0.295,-7.25 5.008,-12.318 11.402,-15.565 0.268,-12.764 0.111,-33.556 -2.232,-43.671 -0.076,-0.341 -0.119,-0.682 -0.148,-1.022 -0.013,-0.081 -0.03,-0.156 -0.042,-0.238 -1.803,-11.089 -5.654,-27.277 -15.656,-27.684 -5.999,-0.244 -8.745,5.656 -8.968,11.158 l -1.678,41.254 c -0.244,5.999 -5.696,10.788 -13.949,10.452 -3.501,-0.142 -6.43,-2.015 -6.329,-4.515 0.071,-1.749 1.133,-3.209 1.326,-7.96 l 1.565,-38.504 c -2.466,-7.114 -6.723,-13.299 -13.472,-13.573 -8.75,-0.356 -14.557,6.923 -15.086,19.924 -1.464,36.006 20.127,53.163 39.133,53.936 2.5,0.101 5.019,-0.297 7.27,-0.206 2.5,0.102 3.189,1.633 3.016,5.884 -0.264,6.5 -5.178,10.308 -11.928,10.033 -30.504,-1.24 -58.473,-27.925 -56.774,-69.68 0.071,-1.772 0.22,-3.505 0.431,-5.199 -0.563,-0.54 -1.098,-1.225 -1.585,-2.109 -0.49,-0.271 -12.891,-15.554 -34.145,-16.418 -28.753,-1.169 -40.206,27.917 -41.467,58.922 -1.657,40.757 21.554,92.041 54.559,93.383 11.501,0.468 15.587,-7.631 15.821,-13.381 0.865,-21.254 -10.843,-32.361 -42,-37.684 -8.344,-1.426 -13.511,-7.24 -13.575,-13.165 -0.089,-8.256 7.319,-13.225 13.259,-12.346 28.061,4.158 63.351,32.494 62.1,63.248 -0.885,21.752 -15.094,32.445 -33.096,31.713 -49.758,-2.023 -79.052,-63.822 -77.069,-112.582 1.963,-48.254 24.725,-78.383 60.48,-76.929 21.376,0.869 36.346,11.473 43.551,17.901 5.292,-7.725 13.377,-12.33 24.027,-11.897 9.5,0.386 16.317,5.169 21.084,11.125 3.996,-5.85 10.921,-9.824 19.67,-9.468 20.57,0.837 29.773,21.831 33.665,38.249 0.11,0.298 0.209,0.613 0.298,0.948 3.912,14.685 4.528,36.5 4.379,46.26 l 2.751,0.112 19.003,0.773 C -49.341,26.546 -53.121,8.608 -52.47,-7.392 c 0.895,-22.004 15.163,-27.934 26.914,-27.456 14.118,0.574 25.709,9.695 34.004,20.329 C 5.094,-9.613 2.332,-4.674 0,0" />
          </g>
          <g
             transform="translate(492.8301,341.9899)"
             id="g90">
            <path
               inkscape:connector-curvature="0"
               id="path92"
               style="fill:#f2c500;fill-opacity:1;fill-rule:nonzero;stroke:none"
               d="m 0,0 c 0,0 -5.197,12.471 -5.197,25.982 0,5.938 4.151,20.23 12.471,18.707 7.429,-1.36 9.354,-13.511 4.1,-25.674 C 6.667,8.118 0,0 0,0 m 159.01,31.178 c -4.481,-18.171 -3.117,-54.042 -50.465,-77.235 -8.22,-4.026 -18.348,-5.791 -30.1,-6.029 -11.297,-0.23 -24.325,1.78 -32.173,5.278 -23.408,10.433 -34.837,24.438 -36.918,30.18 21.824,27.021 24.16,46.54 19.746,60.278 -4.847,15.085 -18.804,23.016 -33.257,13.511 -19.874,-13.07 -19.624,-43.819 -8.654,-67.598 0.713,-1.543 1.473,-3.134 2.282,-4.754 2.332,-4.675 5.093,-9.614 8.448,-14.519 13.394,-19.591 44.691,-39.922 77.948,-39.922 65.475,0 97.694,50.925 105.538,94.575 2.907,16.173 -18.807,20.786 -22.395,6.235" />
          </g>
          <g
             transform="translate(606.1943,405.4391)"
             id="g94">
            <path
               inkscape:connector-curvature="0"
               id="path96"
               style="fill:#f2c500;fill-opacity:1;fill-rule:nonzero;stroke:none"
               d="m 0,0 c -1.948,0 -3.639,0.12 -4.977,0.266 -4.279,0.466 -7.369,4.315 -6.902,8.594 0.469,4.279 4.307,7.367 8.595,6.903 2.584,-0.284 9.285,-0.6 15.603,2.542 4.118,2.047 6.449,4.724 7.679,6.61 2.353,3.605 7.183,4.622 10.787,2.269 3.606,-2.353 4.621,-7.183 2.269,-10.788 C 30.766,12.891 26.517,7.954 19.262,4.347 12.238,0.854 5.203,0 0,0" />
          </g>
          <g
             transform="translate(564.668,419.0969)"
             id="g98">
            <path
               inkscape:connector-curvature="0"
               id="path100"
               style="fill:#f2c500;fill-opacity:1;fill-rule:nonzero;stroke:none"
               d="m 0,0 c -0.372,-6.975 -7.413,-12.376 -15.727,-12.063 -8.312,0.312 -14.75,6.22 -14.377,13.195 0.373,6.975 7.414,12.376 15.727,12.064 C -6.064,12.883 0.373,6.976 0,0" />
          </g>
        </g>
      </g>
    </g>
  </g>
</svg>
